market_cap,volume,timestamp,name,symbol,slug
130580829149.587,18565664996.7884,2020-01-01T23:59:59.999Z,Bitcoin,BTC,bitcoin
126699395235.204,20802083465.3292,2020-01-02T23:59:59.999Z,Bitcoin,BTC,bitcoin
133233444755.489,28111481031.9377,2020-01-03T23:59:59.999Z,Bitcoin,BTC,bitcoin
134442464030.264,18444271274.7607,2020-01-04T23:59:59.999Z,Bitcoin,BTC,bitcoin
134469548249.076,19725074094.5446,2020-01-05T23:59:59.999Z,Bitcoin,BTC,bitcoin
140976457303.71,23276261598.2482,2020-01-06T23:59:59.999Z,Bitcoin,BTC,bitcoin
148152237653.685,28767291326.9703,2020-01-07T23:59:59.999Z,Bitcoin,BTC,bitcoin
146645162431.476,31672559264.5185,2020-01-08T23:59:59.999Z,Bitcoin,BTC,bitcoin
143016572819.392,24045990465.6494,2020-01-09T23:59:59.999Z,Bitcoin,BTC,bitcoin
148249907276.742,28714583843.7846,2020-01-10T23:59:59.999Z,Bitcoin,BTC,bitcoin
145924199942.312,25521165085.3714,2020-01-11T23:59:59.999Z,Bitcoin,BTC,bitcoin
148752956965.746,22903438381.3875,2020-01-12T23:59:59.999Z,Bitcoin,BTC,bitcoin
147890525972.527,22482910687.9031,2020-01-13T23:59:59.999Z,Bitcoin,BTC,bitcoin
160319484882.901,44841784107.1774,2020-01-14T23:59:59.999Z,Bitcoin,BTC,bitcoin
159959191211.678,40102834649.9655,2020-01-15T23:59:59.999Z,Bitcoin,BTC,bitcoin
158465055984.185,31313981930.8235,2020-01-16T23:59:59.999Z,Bitcoin,BTC,bitcoin
162211148777.656,36372139320.4446,2020-01-17T23:59:59.999Z,Bitcoin,BTC,bitcoin
162475965880.12,32337772626.799,2020-01-18T23:59:59.999Z,Bitcoin,BTC,bitcoin
158194319734.796,34217320471.3994,2020-01-19T23:59:59.999Z,Bitcoin,BTC,bitcoin
157327553259.434,26422375678.0529,2020-01-20T23:59:59.999Z,Bitcoin,BTC,bitcoin
158947996833.847,24097418512.0058,2020-01-21T23:59:59.999Z,Bitcoin,BTC,bitcoin
157783273070.101,22600204050.5816,2020-01-22T23:59:59.999Z,Bitcoin,BTC,bitcoin
152813329632.858,25770680778.6907,2020-01-23T23:59:59.999Z,Bitcoin,BTC,bitcoin
153536829768.103,24397913025.6774,2020-01-24T23:59:59.999Z,Bitcoin,BTC,bitcoin
152143262649.888,19647331548.6757,2020-01-25T23:59:59.999Z,Bitcoin,BTC,bitcoin
156322174637.231,22177678795.56,2020-01-26T23:59:59.999Z,Bitcoin,BTC,bitcoin
162027957434.616,28647338393.165,2020-01-27T23:59:59.999Z,Bitcoin,BTC,bitcoin
170205617954.856,34398744402.6914,2020-01-28T23:59:59.999Z,Bitcoin,BTC,bitcoin
169460984603.208,30682598115.464,2020-01-29T23:59:59.999Z,Bitcoin,BTC,bitcoin
172978577930.867,32378792850.8777,2020-01-30T23:59:59.999Z,Bitcoin,BTC,bitcoin
170112778161.315,29432489719.1331,2020-01-31T23:59:59.999Z,Bitcoin,BTC,bitcoin
170900662180.114,25922656496.1848,2020-02-01T23:59:59.999Z,Bitcoin,BTC,bitcoin
170034976661.751,30835736946.1066,2020-02-02T23:59:59.999Z,Bitcoin,BTC,bitcoin
169126861033.712,30934096508.7388,2020-02-03T23:59:59.999Z,Bitcoin,BTC,bitcoin
167093636161.856,29893183716.0878,2020-02-04T23:59:59.999Z,Bitcoin,BTC,bitcoin
174983423932.952,35222060874.4553,2020-02-05T23:59:59.999Z,Bitcoin,BTC,bitcoin
177118274393.946,37628823715.5135,2020-02-06T23:59:59.999Z,Bitcoin,BTC,bitcoin
178339437206.337,34522718159.4693,2020-02-07T23:59:59.999Z,Bitcoin,BTC,bitcoin
179615828322.347,35172043761.8284,2020-02-08T23:59:59.999Z,Bitcoin,BTC,bitcoin
184214765394.475,35807884663.4158,2020-02-09T23:59:59.999Z,Bitcoin,BTC,bitcoin
179494809265.716,39386548074.7018,2020-02-10T23:59:59.999Z,Bitcoin,BTC,bitcoin
185917114988.663,37648059388.6878,2020-02-11T23:59:59.999Z,Bitcoin,BTC,bitcoin
188081204385.987,43444303830.2328,2020-02-12T23:59:59.999Z,Bitcoin,BTC,bitcoin
186065003525.648,49356071372.9288,2020-02-13T23:59:59.999Z,Bitcoin,BTC,bitcoin
187862645448.777,43338264161.5617,2020-02-14T23:59:59.999Z,Bitcoin,BTC,bitcoin
180179996218.634,43865054831.0045,2020-02-15T23:59:59.999Z,Bitcoin,BTC,bitcoin
181017665264.459,43374780305.4408,2020-02-16T23:59:59.999Z,Bitcoin,BTC,bitcoin
176585280987.035,45998298412.6028,2020-02-17T23:59:59.999Z,Bitcoin,BTC,bitcoin
184838512656.137,47271023953.4278,2020-02-18T23:59:59.999Z,Bitcoin,BTC,bitcoin
175585931679.441,46992019709.9208,2020-02-19T23:59:59.999Z,Bitcoin,BTC,bitcoin
175147142158.083,44925260236.831,2020-02-20T23:59:59.999Z,Bitcoin,BTC,bitcoin
176587087363.478,40930547512.6559,2020-02-21T23:59:59.999Z,Bitcoin,BTC,bitcoin
176180696547.801,35838025154.2608,2020-02-22T23:59:59.999Z,Bitcoin,BTC,bitcoin
180963233539.785,41185185761.491,2020-02-23T23:59:59.999Z,Bitcoin,BTC,bitcoin
175977808525.913,45080496648.3463,2020-02-24T23:59:59.999Z,Bitcoin,BTC,bitcoin
170369581557.89,42515259129.2118,2020-02-25T23:59:59.999Z,Bitcoin,BTC,bitcoin
160879489024.207,50420050761.9225,2020-02-26T23:59:59.999Z,Bitcoin,BTC,bitcoin
160238496932.208,45470195695.0864,2020-02-27T23:59:59.999Z,Bitcoin,BTC,bitcoin
158211707018.784,44605450442.7398,2020-02-28T23:59:59.999Z,Bitcoin,BTC,bitcoin
156895988083.74,35792392544.0102,2020-02-29T23:59:59.999Z,Bitcoin,BTC,bitcoin
156238987739.907,35349164300.1413,2020-03-01T23:59:59.999Z,Bitcoin,BTC,bitcoin
161861167745.164,42857674408.8765,2020-03-02T23:59:59.999Z,Bitcoin,BTC,bitcoin
160383579416.238,42386715820.5577,2020-03-03T23:59:59.999Z,Bitcoin,BTC,bitcoin
159807857328.088,34746706368.1467,2020-03-04T23:59:59.999Z,Bitcoin,BTC,bitcoin
165731679917.865,39698054597.4259,2020-03-05T23:59:59.999Z,Bitcoin,BTC,bitcoin
166548261959.532,40826885650.9438,2020-03-06T23:59:59.999Z,Bitcoin,BTC,bitcoin
162684945902.611,36216930369.6665,2020-03-07T23:59:59.999Z,Bitcoin,BTC,bitcoin
148060284561.061,39973102120.5682,2020-03-08T23:59:59.999Z,Bitcoin,BTC,bitcoin
144706353758.487,46936995808.1849,2020-03-09T23:59:59.999Z,Bitcoin,BTC,bitcoin
144465567734.489,42213940993.6104,2020-03-10T23:59:59.999Z,Bitcoin,BTC,bitcoin
144508402670.563,38682762604.6366,2020-03-11T23:59:59.999Z,Bitcoin,BTC,bitcoin
90804613600.616,53980357243.0501,2020-03-12T23:59:59.999Z,Bitcoin,BTC,bitcoin
101644613038.335,74156772074.9603,2020-03-13T23:59:59.999Z,Bitcoin,BTC,bitcoin
95014981943.9861,36154506007.5848,2020-03-14T23:59:59.999Z,Bitcoin,BTC,bitcoin
98530059889.968,33997889638.762,2020-03-15T23:59:59.999Z,Bitcoin,BTC,bitcoin
91633478850.4746,45368026429.6205,2020-03-16T23:59:59.999Z,Bitcoin,BTC,bitcoin
95499941183.34,38622642935.2466,2020-03-17T23:59:59.999Z,Bitcoin,BTC,bitcoin
95740715528.8542,37878801016.3368,2020-03-18T23:59:59.999Z,Bitcoin,BTC,bitcoin
113162079955.697,51000731797.4328,2020-03-19T23:59:59.999Z,Bitcoin,BTC,bitcoin
113309245860.002,54442976102.5119,2020-03-20T23:59:59.999Z,Bitcoin,BTC,bitcoin
113068192795.056,42494390879.6104,2020-03-21T23:59:59.999Z,Bitcoin,BTC,bitcoin
106591196068.926,40099664740.0619,2020-03-22T23:59:59.999Z,Bitcoin,BTC,bitcoin
117314776187.32,46491915999.7158,2020-03-23T23:59:59.999Z,Bitcoin,BTC,bitcoin
123148917787.229,48221910672.248,2020-03-24T23:59:59.999Z,Bitcoin,BTC,bitcoin
122174009142.91,44590107887.9421,2020-03-25T23:59:59.999Z,Bitcoin,BTC,bitcoin
122834375215.51,35319797641.53,2020-03-26T23:59:59.999Z,Bitcoin,BTC,bitcoin
118336082172.395,34585598366.5512,2020-03-27T23:59:59.999Z,Bitcoin,BTC,bitcoin
114183689640.72,34885225901.0064,2020-03-28T23:59:59.999Z,Bitcoin,BTC,bitcoin
108338520155.504,28373690930.5441,2020-03-29T23:59:59.999Z,Bitcoin,BTC,bitcoin
117640143688.458,37101651525.2979,2020-03-30T23:59:59.999Z,Bitcoin,BTC,bitcoin
117814077266.537,32786468812.0812,2020-03-31T23:59:59.999Z,Bitcoin,BTC,bitcoin
120903014693.267,40346426265.7324,2020-04-01T23:59:59.999Z,Bitcoin,BTC,bitcoin
124335130640.41,47660646124.4133,2020-04-02T23:59:59.999Z,Bitcoin,BTC,bitcoin
123244051099.793,38976504902.968,2020-04-03T23:59:59.999Z,Bitcoin,BTC,bitcoin
125712834529.574,33185988583.8042,2020-04-04T23:59:59.999Z,Bitcoin,BTC,bitcoin
124328853511.615,29510409856.1053,2020-04-05T23:59:59.999Z,Bitcoin,BTC,bitcoin
133140400947.86,46896904614.9285,2020-04-06T23:59:59.999Z,Bitcoin,BTC,bitcoin
131409299432.46,44243482667.8499,2020-04-07T23:59:59.999Z,Bitcoin,BTC,bitcoin
134309895035.597,37563249548.9382,2020-04-08T23:59:59.999Z,Bitcoin,BTC,bitcoin
133737857009.882,34815139177.5936,2020-04-09T23:59:59.999Z,Bitcoin,BTC,bitcoin
125755496117.263,43622840991.71,2020-04-10T23:59:59.999Z,Bitcoin,BTC,bitcoin
125651623116.07,31222085946.2734,2020-04-11T23:59:59.999Z,Bitcoin,BTC,bitcoin
127716846208.307,35759567632.2851,2020-04-12T23:59:59.999Z,Bitcoin,BTC,bitcoin
125422221237.296,38619308647.4394,2020-04-13T23:59:59.999Z,Bitcoin,BTC,bitcoin
125388687977.151,34110434051.8629,2020-04-14T23:59:59.999Z,Bitcoin,BTC,bitcoin
121731940639.413,32288311030.7598,2020-04-15T23:59:59.999Z,Bitcoin,BTC,bitcoin
130445413270.0,46783242376.7001,2020-04-16T23:59:59.999Z,Bitcoin,BTC,bitcoin
130078472088.331,32513423567.4314,2020-04-17T23:59:59.999Z,Bitcoin,BTC,bitcoin
133053136875.737,32447188385.9262,2020-04-18T23:59:59.999Z,Bitcoin,BTC,bitcoin
131815853850.003,31311210215.3203,2020-04-19T23:59:59.999Z,Bitcoin,BTC,bitcoin
126192239912.382,37747113935.8454,2020-04-20T23:59:59.999Z,Bitcoin,BTC,bitcoin
126175238603.42,32589741510.7266,2020-04-21T23:59:59.999Z,Bitcoin,BTC,bitcoin
130530916076.973,33249153865.7605,2020-04-22T23:59:59.999Z,Bitcoin,BTC,bitcoin
136275638030.678,43500782316.0712,2020-04-23T23:59:59.999Z,Bitcoin,BTC,bitcoin
138512029491.143,34636526285.7972,2020-04-24T23:59:59.999Z,Bitcoin,BTC,bitcoin
138874072264.263,32941541446.9347,2020-04-25T23:59:59.999Z,Bitcoin,BTC,bitcoin
140903867572.585,33070154490.749,2020-04-26T23:59:59.999Z,Bitcoin,BTC,bitcoin
143040988589.571,36162144724.7077,2020-04-27T23:59:59.999Z,Bitcoin,BTC,bitcoin
143266252261.336,33187959920.9249,2020-04-28T23:59:59.999Z,Bitcoin,BTC,bitcoin
161522471384.783,60201052202.5403,2020-04-29T23:59:59.999Z,Bitcoin,BTC,bitcoin
158922133909.094,66964629541.3087,2020-04-30T23:59:59.999Z,Bitcoin,BTC,bitcoin
162722652380.246,44068389996.9374,2020-05-01T23:59:59.999Z,Bitcoin,BTC,bitcoin
165012307599.614,40134388683.2271,2020-05-02T23:59:59.999Z,Bitcoin,BTC,bitcoin
163358189150.984,47101785174.2562,2020-05-03T23:59:59.999Z,Bitcoin,BTC,bitcoin
163654493632.392,45718796275.5495,2020-05-04T23:59:59.999Z,Bitcoin,BTC,bitcoin
165332488791.878,43148462663.1671,2020-05-05T23:59:59.999Z,Bitcoin,BTC,bitcoin
170229620935.298,49371886931.4799,2020-05-06T23:59:59.999Z,Bitcoin,BTC,bitcoin
182787376636.504,61112700562.079,2020-05-07T23:59:59.999Z,Bitcoin,BTC,bitcoin
180804859844.221,51780748041.9506,2020-05-08T23:59:59.999Z,Bitcoin,BTC,bitcoin
176251395672.863,46566121841.1111,2020-05-09T23:59:59.999Z,Bitcoin,BTC,bitcoin
160884755210.801,63325279336.9553,2020-05-10T23:59:59.999Z,Bitcoin,BTC,bitcoin
158059235275.589,57119858801.9446,2020-05-11T23:59:59.999Z,Bitcoin,BTC,bitcoin
161791577300.916,42142717533.1676,2020-05-12T23:59:59.999Z,Bitcoin,BTC,bitcoin
170352710071.21,45558144023.0156,2020-05-13T23:59:59.999Z,Bitcoin,BTC,bitcoin
178881641547.089,56426907637.2912,2020-05-14T23:59:59.999Z,Bitcoin,BTC,bitcoin
171436341789.485,48158802327.3442,2020-05-15T23:59:59.999Z,Bitcoin,BTC,bitcoin
172340956578.561,36164766407.6309,2020-05-16T23:59:59.999Z,Bitcoin,BTC,bitcoin
177745404470.085,40084250662.9587,2020-05-17T23:59:59.999Z,Bitcoin,BTC,bitcoin
178779483463.616,41827139895.6194,2020-05-18T23:59:59.999Z,Bitcoin,BTC,bitcoin
178831635026.347,39254288954.9774,2020-05-19T23:59:59.999Z,Bitcoin,BTC,bitcoin
175050963474.872,36546239702.5477,2020-05-20T23:59:59.999Z,Bitcoin,BTC,bitcoin
166947987863.53,39326160532.4299,2020-05-21T23:59:59.999Z,Bitcoin,BTC,bitcoin
168807619957.283,29810773699.2271,2020-05-22T23:59:59.999Z,Bitcoin,BTC,bitcoin
169305492439.588,27727866811.6695,2020-05-23T23:59:59.999Z,Bitcoin,BTC,bitcoin
161610414642.629,32518803299.5833,2020-05-24T23:59:59.999Z,Bitcoin,BTC,bitcoin
163760453116.409,31288157264.1934,2020-05-25T23:59:59.999Z,Bitcoin,BTC,bitcoin
162445535235.104,29584186947.0227,2020-05-26T23:59:59.999Z,Bitcoin,BTC,bitcoin
168814700531.386,32740536902.3266,2020-05-27T23:59:59.999Z,Bitcoin,BTC,bitcoin
175161235290.292,34367073114.464,2020-05-28T23:59:59.999Z,Bitcoin,BTC,bitcoin
173575756364.005,32896642044.2639,2020-05-29T23:59:59.999Z,Bitcoin,BTC,bitcoin
178390129757.676,32722975141.2035,2020-05-30T23:59:59.999Z,Bitcoin,BTC,bitcoin
173997151929.677,27773290298.5099,2020-05-31T23:59:59.999Z,Bitcoin,BTC,bitcoin
186993405740.449,35198901068.3888,2020-06-01T23:59:59.999Z,Bitcoin,BTC,bitcoin
175277218229.261,39137252108.6748,2020-06-02T23:59:59.999Z,Bitcoin,BTC,bitcoin
177619631125.589,25007459262.1552,2020-06-03T23:59:59.999Z,Bitcoin,BTC,bitcoin
180276153545.029,25921805071.9826,2020-06-04T23:59:59.999Z,Bitcoin,BTC,bitcoin
177801825144.882,23509628646.2021,2020-06-05T23:59:59.999Z,Bitcoin,BTC,bitcoin
177595657884.165,20438419222.3341,2020-06-06T23:59:59.999Z,Bitcoin,BTC,bitcoin
179540253701.404,25015250845.6586,2020-06-07T23:59:59.999Z,Bitcoin,BTC,bitcoin
179782576533.652,21486346311.9064,2020-06-08T23:59:59.999Z,Bitcoin,BTC,bitcoin
180237817527.031,23717842782.9821,2020-06-09T23:59:59.999Z,Bitcoin,BTC,bitcoin
181616765438.402,25706567600.5701,2020-06-10T23:59:59.999Z,Bitcoin,BTC,bitcoin
171538133043.473,30247143440.179,2020-06-11T23:59:59.999Z,Bitcoin,BTC,bitcoin
174474896921.532,22610564515.3124,2020-06-12T23:59:59.999Z,Bitcoin,BTC,bitcoin
174381819725.142,17564322315.198,2020-06-13T23:59:59.999Z,Bitcoin,BTC,bitcoin
172763239787.199,18991732745.507,2020-06-14T23:59:59.999Z,Bitcoin,BTC,bitcoin
173947607771.726,26699704768.4568,2020-06-15T23:59:59.999Z,Bitcoin,BTC,bitcoin
175563963385.476,21565537208.8567,2020-06-16T23:59:59.999Z,Bitcoin,BTC,bitcoin
174508805561.132,20177709879.1518,2020-06-17T23:59:59.999Z,Bitcoin,BTC,bitcoin
173256688664.117,17770083002.7017,2020-06-18T23:59:59.999Z,Bitcoin,BTC,bitcoin
170985625732.412,19632223107.3844,2020-06-19T23:59:59.999Z,Bitcoin,BTC,bitcoin
171809438650.585,17130541557.3081,2020-06-20T23:59:59.999Z,Bitcoin,BTC,bitcoin
171289415078.632,15324301168.8293,2020-06-21T23:59:59.999Z,Bitcoin,BTC,bitcoin
177651397436.609,21104009513.9664,2020-06-22T23:59:59.999Z,Bitcoin,BTC,bitcoin
177310052079.171,17006433272.0405,2020-06-23T23:59:59.999Z,Bitcoin,BTC,bitcoin
171498781279.927,18961716075.6046,2020-06-24T23:59:59.999Z,Bitcoin,BTC,bitcoin
170608289503.753,18616048626.1063,2020-06-25T23:59:59.999Z,Bitcoin,BTC,bitcoin
168741367621.97,18341465836.5998,2020-06-26T23:59:59.999Z,Bitcoin,BTC,bitcoin
166584831506.245,17273093144.4037,2020-06-27T23:59:59.999Z,Bitcoin,BTC,bitcoin
168401806136.911,14560870760.2209,2020-06-28T23:59:59.999Z,Bitcoin,BTC,bitcoin
169280659245.843,16460547078.0368,2020-06-29T23:59:59.999Z,Bitcoin,BTC,bitcoin
168315606321.29,15735797743.9923,2020-06-30T23:59:59.999Z,Bitcoin,BTC,bitcoin
169988756578.038,15971550355.2327,2020-07-01T23:59:59.999Z,Bitcoin,BTC,bitcoin
14271059633.0755,7935230330.4751,2020-01-01T23:59:59.999Z,Ethereum,ETH,ethereum
13902505466.2437,8032709256.07622,2020-01-02T23:59:59.999Z,Ethereum,ETH,ethereum
14642130119.6642,10476845358.0825,2020-01-03T23:59:59.999Z,Ethereum,ETH,ethereum
14741946278.126,7430904515.09457,2020-01-04T23:59:59.999Z,Ethereum,ETH,ethereum
14875569429.664,7526675353.24436,2020-01-05T23:59:59.999Z,Ethereum,ETH,ethereum
15753803339.942,9093747120.54445,2020-01-06T23:59:59.999Z,Ethereum,ETH,ethereum
15672773110.1732,9257954671.54302,2020-01-07T23:59:59.999Z,Ethereum,ETH,ethereum
15425115411.4042,9387194956.58904,2020-01-08T23:59:59.999Z,Ethereum,ETH,ethereum
15178151516.9684,7697325347.90469,2020-01-09T23:59:59.999Z,Ethereum,ETH,ethereum
15724494552.6748,9084816202.76711,2020-01-10T23:59:59.999Z,Ethereum,ETH,ethereum
15613213639.7289,9332208590.18775,2020-01-11T23:59:59.999Z,Ethereum,ETH,ethereum
15937115426.2969,8528167453.24902,2020-01-12T23:59:59.999Z,Ethereum,ETH,ethereum
15759102081.3277,8378529469.79702,2020-01-13T23:59:59.999Z,Ethereum,ETH,ethereum
18135588270.9266,16712318373.0187,2020-01-14T23:59:59.999Z,Ethereum,ETH,ethereum
18167930410.6557,15173694057.1567,2020-01-15T23:59:59.999Z,Ethereum,ETH,ethereum
17969103320.7762,13735193017.9104,2020-01-16T23:59:59.999Z,Ethereum,ETH,ethereum
18669811575.9153,14997091825.8827,2020-01-17T23:59:59.999Z,Ethereum,ETH,ethereum
19173512822.9137,14929342255.5251,2020-01-18T23:59:59.999Z,Ethereum,ETH,ethereum
18257853531.6232,13713374132.1754,2020-01-19T23:59:59.999Z,Ethereum,ETH,ethereum
18276600991.9192,11144529787.0924,2020-01-20T23:59:59.999Z,Ethereum,ETH,ethereum
18560711557.1284,9789369362.47085,2020-01-21T23:59:59.999Z,Ethereum,ETH,ethereum
18409534609.4783,9209827927.92133,2020-01-22T23:59:59.999Z,Ethereum,ETH,ethereum
17824835899.2751,10396868698.0135,2020-01-23T23:59:59.999Z,Ethereum,ETH,ethereum
17840465424.1492,10657671161.8162,2020-01-24T23:59:59.999Z,Ethereum,ETH,ethereum
17649296255.9479,8256956801.64332,2020-01-25T23:59:59.999Z,Ethereum,ETH,ethereum
18394952134.9465,9261861589.61793,2020-01-26T23:59:59.999Z,Ethereum,ETH,ethereum
18709615890.943,11004476145.2172,2020-01-27T23:59:59.999Z,Ethereum,ETH,ethereum
19307396128.3943,11772875063.6629,2020-01-28T23:59:59.999Z,Ethereum,ETH,ethereum
19165292202.1875,10725267310.6002,2020-01-29T23:59:59.999Z,Ethereum,ETH,ethereum
20223232963.5657,12604789338.0387,2020-01-30T23:59:59.999Z,Ethereum,ETH,ethereum
19729633077.607,11728616393.8933,2020-01-31T23:59:59.999Z,Ethereum,ETH,ethereum
20116913727.9509,11569697182.4858,2020-02-01T23:59:59.999Z,Ethereum,ETH,ethereum
20660936266.9287,14054425388.9062,2020-02-02T23:59:59.999Z,Ethereum,ETH,ethereum
20800183238.206,12392875241.4011,2020-02-03T23:59:59.999Z,Ethereum,ETH,ethereum
20735478719.6275,11714191695.0612,2020-02-04T23:59:59.999Z,Ethereum,ETH,ethereum
22379510312.3186,14865434434.9265,2020-02-05T23:59:59.999Z,Ethereum,ETH,ethereum
23270983771.9064,16425589682.5221,2020-02-06T23:59:59.999Z,Ethereum,ETH,ethereum
24412375481.5021,16673443564.2959,2020-02-07T23:59:59.999Z,Ethereum,ETH,ethereum
24461492838.843,16741203125.0677,2020-02-08T23:59:59.999Z,Ethereum,ETH,ethereum
25060056858.7598,15031356241.4966,2020-02-09T23:59:59.999Z,Ethereum,ETH,ethereum
24508831902.9171,16210008511.4996,2020-02-10T23:59:59.999Z,Ethereum,ETH,ethereum
25863852652.7983,16964695963.4936,2020-02-11T23:59:59.999Z,Ethereum,ETH,ethereum
29108513969.2886,24545049385.8684,2020-02-12T23:59:59.999Z,Ethereum,ETH,ethereum
29407537084.1234,25801317504.3066,2020-02-13T23:59:59.999Z,Ethereum,ETH,ethereum
31179427622.664,23558253462.7508,2020-02-14T23:59:59.999Z,Ethereum,ETH,ethereum
29045044403.4449,23682452994.3183,2020-02-15T23:59:59.999Z,Ethereum,ETH,ethereum
28518254585.3635,25152366643.3689,2020-02-16T23:59:59.999Z,Ethereum,ETH,ethereum
29231690264.404,26024080088.8484,2020-02-17T23:59:59.999Z,Ethereum,ETH,ethereum
30945457816.3784,26511477187.1359,2020-02-18T23:59:59.999Z,Ethereum,ETH,ethereum
28514562065.0578,22679414412.7183,2020-02-19T23:59:59.999Z,Ethereum,ETH,ethereum
28318879771.1218,23229828870.1201,2020-02-20T23:59:59.999Z,Ethereum,ETH,ethereum
29162464509.1563,20867593292.2429,2020-02-21T23:59:59.999Z,Ethereum,ETH,ethereum
28807130265.5221,16906032861.6085,2020-02-22T23:59:59.999Z,Ethereum,ETH,ethereum
30065188433.327,19585998813.8732,2020-02-23T23:59:59.999Z,Ethereum,ETH,ethereum
29131114036.5722,22400845640.3032,2020-02-24T23:59:59.999Z,Ethereum,ETH,ethereum
27223398194.7017,21878882134.0529,2020-02-25T23:59:59.999Z,Ethereum,ETH,ethereum
24794645345.3129,26235617201.076,2020-02-26T23:59:59.999Z,Ethereum,ETH,ethereum
24915636230.767,25645522789.772,2020-02-27T23:59:59.999Z,Ethereum,ETH,ethereum
24919509264.9173,22563530559.1046,2020-02-28T23:59:59.999Z,Ethereum,ETH,ethereum
24162913195.453,18181296376.3477,2020-02-29T23:59:59.999Z,Ethereum,ETH,ethereum
24069393931.8345,18179807469.1001,2020-03-01T23:59:59.999Z,Ethereum,ETH,ethereum
25347534007.3968,20305587789.0636,2020-03-02T23:59:59.999Z,Ethereum,ETH,ethereum
24681090482.5459,19853178572.3478,2020-03-03T23:59:59.999Z,Ethereum,ETH,ethereum
24688386921.3985,16567075208.0566,2020-03-04T23:59:59.999Z,Ethereum,ETH,ethereum
25213804821.1574,18201291785.2961,2020-03-05T23:59:59.999Z,Ethereum,ETH,ethereum
26785082138.7094,19374772256.2312,2020-03-06T23:59:59.999Z,Ethereum,ETH,ethereum
26164459703.9251,19431652027.37,2020-03-07T23:59:59.999Z,Ethereum,ETH,ethereum
22079071206.5242,21381823651.3696,2020-03-08T23:59:59.999Z,Ethereum,ETH,ethereum
22224520905.918,23645428606.1061,2020-03-09T23:59:59.999Z,Ethereum,ETH,ethereum
22093126953.1259,18344930072.1938,2020-03-10T23:59:59.999Z,Ethereum,ETH,ethereum
21446678546.1607,16984790291.2585,2020-03-11T23:59:59.999Z,Ethereum,ETH,ethereum
12366138225.0849,22134741654.7299,2020-03-12T23:59:59.999Z,Ethereum,ETH,ethereum
14663417618.4701,27864623060.6624,2020-03-13T23:59:59.999Z,Ethereum,ETH,ethereum
13575727274.8179,12740784545.4522,2020-03-14T23:59:59.999Z,Ethereum,ETH,ethereum
13787534423.1597,12719251812.5511,2020-03-15T23:59:59.999Z,Ethereum,ETH,ethereum
12180483052.6055,15984904589.6297,2020-03-16T23:59:59.999Z,Ethereum,ETH,ethereum
12549513954.4941,12087490572.2852,2020-03-17T23:59:59.999Z,Ethereum,ETH,ethereum
12650160817.9084,11617854008.6765,2020-03-18T23:59:59.999Z,Ethereum,ETH,ethereum
15048018840.04,16396753275.29,2020-03-19T23:59:59.999Z,Ethereum,ETH,ethereum
14624949756.7366,18960388062.1676,2020-03-20T23:59:59.999Z,Ethereum,ETH,ethereum
14635764102.3456,13684083307.7535,2020-03-21T23:59:59.999Z,Ethereum,ETH,ethereum
13590860527.4882,12497707223.5765,2020-03-22T23:59:59.999Z,Ethereum,ETH,ethereum
14870079034.5566,14149877968.1487,2020-03-23T23:59:59.999Z,Ethereum,ETH,ethereum
15296295171.1995,14609068673.4853,2020-03-24T23:59:59.999Z,Ethereum,ETH,ethereum
15015344149.514,13433092919.8647,2020-03-25T23:59:59.999Z,Ethereum,ETH,ethereum
15255985585.5517,11367261176.0051,2020-03-26T23:59:59.999Z,Ethereum,ETH,ethereum
14770071749.7382,11396286629.2955,2020-03-27T23:59:59.999Z,Ethereum,ETH,ethereum
14446379742.8904,12162403960.3873,2020-03-28T23:59:59.999Z,Ethereum,ETH,ethereum
13852241607.2783,9938133668.53392,2020-03-29T23:59:59.999Z,Ethereum,ETH,ethereum
14661550830.5499,11841123306.4222,2020-03-30T23:59:59.999Z,Ethereum,ETH,ethereum
14739376437.832,11065246316.9778,2020-03-31T23:59:59.999Z,Ethereum,ETH,ethereum
14966424710.3319,12456564434.6682,2020-04-01T23:59:59.999Z,Ethereum,ETH,ethereum
15673960168.7607,15322861686.0569,2020-04-02T23:59:59.999Z,Ethereum,ETH,ethereum
15682757537.5282,13184603401.9239,2020-04-03T23:59:59.999Z,Ethereum,ETH,ethereum
16029973618.0818,11946658256.7012,2020-04-04T23:59:59.999Z,Ethereum,ETH,ethereum
15847283514.1155,11280993590.8495,2020-04-05T23:59:59.999Z,Ethereum,ETH,ethereum
18674571701.0477,21636382525.0974,2020-04-06T23:59:59.999Z,Ethereum,ETH,ethereum
18231455421.9281,21659346091.3178,2020-04-07T23:59:59.999Z,Ethereum,ETH,ethereum
19066388907.9858,17063110836.1549,2020-04-08T23:59:59.999Z,Ethereum,ETH,ethereum
18866106818.4971,14901696210.1146,2020-04-09T23:59:59.999Z,Ethereum,ETH,ethereum
17499250378.1532,17980944615.7097,2020-04-10T23:59:59.999Z,Ethereum,ETH,ethereum
17479687023.2083,13555089447.1146,2020-04-11T23:59:59.999Z,Ethereum,ETH,ethereum
17805206567.5855,15123721385.9445,2020-04-12T23:59:59.999Z,Ethereum,ETH,ethereum
17270031992.1863,16465282132.7883,2020-04-13T23:59:59.999Z,Ethereum,ETH,ethereum
17417697023.8275,14723156630.0595,2020-04-14T23:59:59.999Z,Ethereum,ETH,ethereum
16943501885.9061,14171753736.5254,2020-04-15T23:59:59.999Z,Ethereum,ETH,ethereum
19031693317.2915,22910469235.6043,2020-04-16T23:59:59.999Z,Ethereum,ETH,ethereum
18976660194.137,16714684265.8828,2020-04-17T23:59:59.999Z,Ethereum,ETH,ethereum
20668075856.6276,20160323442.9954,2020-04-18T23:59:59.999Z,Ethereum,ETH,ethereum
20084614446.186,19146038381.4492,2020-04-19T23:59:59.999Z,Ethereum,ETH,ethereum
19056520718.2587,21266681335.1588,2020-04-20T23:59:59.999Z,Ethereum,ETH,ethereum
19107591181.7675,16458767984.0892,2020-04-21T23:59:59.999Z,Ethereum,ETH,ethereum
20200984352.2299,17994666394.6491,2020-04-22T23:59:59.999Z,Ethereum,ETH,ethereum
20472236139.292,21275740032.2271,2020-04-23T23:59:59.999Z,Ethereum,ETH,ethereum
20940434736.6902,16788555028.0547,2020-04-24T23:59:59.999Z,Ethereum,ETH,ethereum
21637838416.5429,18260969748.1499,2020-04-25T23:59:59.999Z,Ethereum,ETH,ethereum
21839976556.7041,18335367011.6376,2020-04-26T23:59:59.999Z,Ethereum,ETH,ethereum
21832392036.1099,18670194594.8337,2020-04-27T23:59:59.999Z,Ethereum,ETH,ethereum
21966890356.533,18217507467.0215,2020-04-28T23:59:59.999Z,Ethereum,ETH,ethereum
24023887081.339,26397548759.2642,2020-04-29T23:59:59.999Z,Ethereum,ETH,ethereum
22989647064.8035,28089191903.9978,2020-04-30T23:59:59.999Z,Ethereum,ETH,ethereum
23725367639.1752,20816320833.5286,2020-05-01T23:59:59.999Z,Ethereum,ETH,ethereum
23850828458.5514,18260876092.1731,2020-05-02T23:59:59.999Z,Ethereum,ETH,ethereum
23367177866.6255,20469034664.1327,2020-05-03T23:59:59.999Z,Ethereum,ETH,ethereum
23064379025.3469,22602446421.767,2020-05-04T23:59:59.999Z,Ethereum,ETH,ethereum
22912129590.4613,19004689099.1832,2020-05-05T23:59:59.999Z,Ethereum,ETH,ethereum
22613632877.0933,20343543799.0392,2020-05-06T23:59:59.999Z,Ethereum,ETH,ethereum
23528981906.0044,23594744655.394,2020-05-07T23:59:59.999Z,Ethereum,ETH,ethereum
23609735113.4268,20445139356.3264,2020-05-08T23:59:59.999Z,Ethereum,ETH,ethereum
23458353557.9526,18950547549.2131,2020-05-09T23:59:59.999Z,Ethereum,ETH,ethereum
20911059577.7407,25211575192.6674,2020-05-10T23:59:59.999Z,Ethereum,ETH,ethereum
20615704448.6711,20054601646.7873,2020-05-11T23:59:59.999Z,Ethereum,ETH,ethereum
20995260628.8043,15899726283.7581,2020-05-12T23:59:59.999Z,Ethereum,ETH,ethereum
22093789228.1416,17054662288.5919,2020-05-13T23:59:59.999Z,Ethereum,ETH,ethereum
22513148758.7409,20150524860.6463,2020-05-14T23:59:59.999Z,Ethereum,ETH,ethereum
21703086884.9707,16602342092.1298,2020-05-15T23:59:59.999Z,Ethereum,ETH,ethereum
22266558227.0629,15379081644.7062,2020-05-16T23:59:59.999Z,Ethereum,ETH,ethereum
22988575488.4967,15470397302.6915,2020-05-17T23:59:59.999Z,Ethereum,ETH,ethereum
23808928396.2325,17411566927.5013,2020-05-18T23:59:59.999Z,Ethereum,ETH,ethereum
23692625223.663,14346192778.7086,2020-05-19T23:59:59.999Z,Ethereum,ETH,ethereum
23323160696.2645,12730175510.5633,2020-05-20T23:59:59.999Z,Ethereum,ETH,ethereum
22192109649.8768,13308321228.8459,2020-05-21T23:59:59.999Z,Ethereum,ETH,ethereum
23003786384.6735,12041592113.5988,2020-05-22T23:59:59.999Z,Ethereum,ETH,ethereum
23176030658.6082,10665476767.6428,2020-05-23T23:59:59.999Z,Ethereum,ETH,ethereum
22476471749.8903,11833299571.9749,2020-05-24T23:59:59.999Z,Ethereum,ETH,ethereum
22806813422.533,10415044123.5561,2020-05-25T23:59:59.999Z,Ethereum,ETH,ethereum
22429962991.4266,10159741290.3502,2020-05-26T23:59:59.999Z,Ethereum,ETH,ethereum
23206144127.4458,10631034756.4509,2020-05-27T23:59:59.999Z,Ethereum,ETH,ethereum
24428738046.939,12212469603.9905,2020-05-28T23:59:59.999Z,Ethereum,ETH,ethereum
24524484269.4994,12265816557.4289,2020-05-29T23:59:59.999Z,Ethereum,ETH,ethereum
26936114603.8668,15027397866.509,2020-05-30T23:59:59.999Z,Ethereum,ETH,ethereum
25675542328.5429,12234904813.3392,2020-05-31T23:59:59.999Z,Ethereum,ETH,ethereum
27459257209.3334,13951727936.4523,2020-06-01T23:59:59.999Z,Ethereum,ETH,ethereum
26376031889.8962,13782107566.7125,2020-06-02T23:59:59.999Z,Ethereum,ETH,ethereum
27153238868.036,9861760817.12703,2020-06-03T23:59:59.999Z,Ethereum,ETH,ethereum
27184018611.4984,10170414303.5273,2020-06-04T23:59:59.999Z,Ethereum,ETH,ethereum
26830954614.3278,9293963913.72746,2020-06-05T23:59:59.999Z,Ethereum,ETH,ethereum
26913140925.0525,8114873844.8001,2020-06-06T23:59:59.999Z,Ethereum,ETH,ethereum
27276459502.3961,9544883157.42203,2020-06-07T23:59:59.999Z,Ethereum,ETH,ethereum
27406923225.6,8076783298.94849,2020-06-08T23:59:59.999Z,Ethereum,ETH,ethereum
27254678255.1854,8446545787.72598,2020-06-09T23:59:59.999Z,Ethereum,ETH,ethereum
27539945413.3418,8792990205.54989,2020-06-10T23:59:59.999Z,Ethereum,ETH,ethereum
25791024830.9758,12356528860.4776,2020-06-11T23:59:59.999Z,Ethereum,ETH,ethereum
26438827419.6395,8868955009.12327,2020-06-12T23:59:59.999Z,Ethereum,ETH,ethereum
26599679550.2949,7141624979.75205,2020-06-13T23:59:59.999Z,Ethereum,ETH,ethereum
26069111857.0612,7439385176.17291,2020-06-14T23:59:59.999Z,Ethereum,ETH,ethereum
25606145743.4091,10536099884.1166,2020-06-15T23:59:59.999Z,Ethereum,ETH,ethereum
26109047391.7202,7965648016.42445,2020-06-16T23:59:59.999Z,Ethereum,ETH,ethereum
25957610763.5026,7701391591.86815,2020-06-17T23:59:59.999Z,Ethereum,ETH,ethereum
25857495154.9566,6713800871.61371,2020-06-18T23:59:59.999Z,Ethereum,ETH,ethereum
25307718819.0129,6946372589.52751,2020-06-19T23:59:59.999Z,Ethereum,ETH,ethereum
25548837121.2462,6252830565.7274,2020-06-20T23:59:59.999Z,Ethereum,ETH,ethereum
25520273836.841,5600408177.54414,2020-06-21T23:59:59.999Z,Ethereum,ETH,ethereum
27032930743.0122,9079586552.41625,2020-06-22T23:59:59.999Z,Ethereum,ETH,ethereum
27215606543.0927,6624530348.23615,2020-06-23T23:59:59.999Z,Ethereum,ETH,ethereum
26285822239.1477,8815030024.6531,2020-06-24T23:59:59.999Z,Ethereum,ETH,ethereum
25973707946.1754,7010426122.49538,2020-06-25T23:59:59.999Z,Ethereum,ETH,ethereum
25611500297.1459,7187490225.5069,2020-06-26T23:59:59.999Z,Ethereum,ETH,ethereum
24866429444.8032,6918380954.96753,2020-06-27T23:59:59.999Z,Ethereum,ETH,ethereum
25135786985.5184,6205925718.18911,2020-06-28T23:59:59.999Z,Ethereum,ETH,ethereum
25456513994.3261,6726164653.25879,2020-06-29T23:59:59.999Z,Ethereum,ETH,ethereum
25249913730.1826,6094093001.38843,2020-06-30T23:59:59.999Z,Ethereum,ETH,ethereum
25788404349.8574,6463737442.7548,2020-07-01T23:59:59.999Z,Ethereum,ETH,ethereum
