time,price
11:45:41, 47514.37
11:45:45, 47514.37
11:45:49, 47514.37
11:45:52, 47514.37
11:45:56, 47514.37
11:45:59, 47514.37
11:46:03, 47514.37
11:46:06, 47514.37
11:46:10, 47514.37
11:46:13, 47561.87
11:46:17, 47561.87
11:46:20, 47561.87
11:46:23, 47561.87
11:46:27, 47561.87
11:46:30, 47561.87
11:46:34, 47561.87
11:46:37, 47561.87
11:46:41, 47561.87
11:46:44, 47561.87
11:46:48, 47561.87
11:46:51, 47561.87
11:46:55, 47561.87
11:46:58, 47561.87
11:47:02, 47561.87
11:47:05, 47561.87
11:47:09, 47561.87
11:47:12, 47561.87
11:47:15, 47631.29
11:47:19, 47631.29
11:47:23, 47631.29
11:47:26, 47631.29
11:47:30, 47631.29
11:47:33, 47631.29
11:47:37, 47631.29
11:47:40, 47631.29
11:47:44, 47631.29
11:47:47, 47631.29
11:47:51, 47631.29
11:47:54, 47631.29
11:47:58, 47631.29
11:48:01, 47631.29
11:48:05, 47631.29
11:48:08, 47631.29
11:48:12, 47631.29
11:48:15, 47631.29
11:48:19, 47657.95
11:48:23, 47657.95
11:48:26, 47657.95
11:48:30, 47657.95
11:48:34, 47657.95
11:48:37, 47657.95
11:48:41, 47657.95
11:48:44, 47657.95
11:48:48, 47657.95
11:48:51, 47657.95
11:48:55, 47657.95
11:48:59, 47657.95
11:49:02, 47657.95
11:49:06, 47657.95
11:49:09, 47657.95
11:49:13, 47708.71
11:49:17, 47708.71
11:49:20, 47708.71
11:49:23, 47708.71
11:49:27, 47708.71
11:49:31, 47708.71
11:49:34, 47708.71
11:49:38, 47708.71
11:49:41, 47708.71
11:49:45, 47708.71
11:49:49, 47708.71
11:49:52, 47708.71
11:49:56, 47708.71
11:50:00, 47708.71
11:50:03, 47708.71
11:50:07, 47708.71
11:50:10, 47708.71
11:50:14, 47708.71
11:50:17, 47672.22
11:50:21, 47672.22
11:50:25, 47672.22
11:50:28, 47672.22
11:50:32, 47672.22
11:50:36, 47672.22
11:50:39, 47672.22
11:50:43, 47672.22
11:50:47, 47672.22
11:50:50, 47672.22
11:50:54, 47672.22
11:50:58, 47672.22
11:51:01, 47672.22
11:51:05, 47672.22
11:51:09, 47672.22
11:51:12, 47630.83
11:51:16, 47630.83
11:51:20, 47630.83
11:51:23, 47630.83
11:51:27, 47630.83
11:51:31, 47630.83
11:51:34, 47630.83
11:51:38, 47630.83
11:51:42, 47630.83
11:51:45, 47630.83
11:51:49, 47630.83
11:51:53, 47630.83
11:51:57, 47630.83
11:52:01, 47630.83
11:52:05, 47630.83
11:52:09, 47630.83
11:52:13, 47630.83
11:52:16, 47630.83
11:52:20, 47651.29
11:52:24, 47651.29
11:52:28, 47651.29
11:52:32, 47651.29
11:52:36, 47651.29
11:52:40, 47651.29
11:52:43, 47651.29
11:52:47, 47651.29
11:52:51, 47651.29
11:52:54, 47651.29
11:52:58, 47651.29
11:53:02, 47651.29
11:53:05, 47651.29
11:53:09, 47651.29
11:53:13, 47651.29
11:53:17, 47742.37
11:53:21, 47742.37
11:53:24, 47742.37
11:53:28, 47742.37
11:53:32, 47742.37
11:53:36, 47742.37
11:53:40, 47742.37
11:53:44, 47742.37
11:53:47, 47742.37
11:53:51, 47742.37
11:53:55, 47742.37
11:53:59, 47742.37
11:54:02, 47742.37
11:54:06, 47742.37
11:54:10, 47742.37
11:54:14, 47739.54
11:54:17, 47739.54
11:54:21, 47739.54
11:54:25, 47739.54
11:54:29, 47739.54
11:54:32, 47739.54
11:54:36, 47739.54
11:54:40, 47739.54
11:54:44, 47739.54
11:54:48, 47739.54
11:54:52, 47739.54
11:54:55, 47739.54
11:54:59, 47739.54
11:55:03, 47739.54
11:55:07, 47739.54
11:55:10, 47716.36
11:55:14, 47716.36
11:55:18, 47716.36
11:55:22, 47716.36
11:55:26, 47716.36
11:55:30, 47716.36
11:55:33, 47716.36
11:55:37, 47716.36
11:55:41, 47716.36
11:55:45, 47716.36
11:55:49, 47716.36
11:55:53, 47716.36
11:55:57, 47716.36
11:56:01, 47716.36
11:56:05, 47716.36
11:56:08, 47716.36
11:56:13, 47716.36
11:56:16, 47716.36
11:56:20, 47692.68
11:56:24, 47692.68
11:56:28, 47692.68
11:56:32, 47692.68
11:56:36, 47692.68
11:56:40, 47692.68
11:56:44, 47692.68
11:56:48, 47692.68
11:56:52, 47692.68
11:56:56, 47692.68
11:57:00, 47692.68
11:57:03, 47692.68
11:57:07, 47692.68
11:57:11, 47692.68
11:57:15, 47692.68
11:57:19, 47676.18
11:57:23, 47676.18
11:57:27, 47676.18
11:57:30, 47676.18
11:57:35, 47676.18
11:57:38, 47676.18
11:57:42, 47676.18
11:57:46, 47676.18
11:57:50, 47676.18
11:57:54, 47676.18
11:57:58, 47676.18
11:58:02, 47676.18
11:58:06, 47676.18
11:58:10, 47676.18
11:58:14, 47676.18
11:58:17, 47641.11
11:58:22, 47641.11
11:58:25, 47641.11
11:58:29, 47641.11
11:58:33, 47641.11
11:58:37, 47641.11
11:58:41, 47641.11
11:58:45, 47641.11
11:58:49, 47641.11
11:58:53, 47641.11
11:58:57, 47641.11
11:59:01, 47641.11
11:59:05, 47641.11
11:59:09, 47641.11
11:59:13, 47641.11
11:59:16, 47629.93
11:59:21, 47629.93
11:59:24, 47629.93
11:59:28, 47629.93
11:59:32, 47629.93
11:59:36, 47629.93
11:59:40, 47629.93
11:59:44, 47629.93
11:59:48, 47629.93
11:59:52, 47629.93
11:59:56, 47629.93
12:00:00, 47629.93
12:00:04, 47629.93
12:00:08, 47629.93
12:00:12, 47629.93
12:00:16, 47632.57
12:00:20, 47632.57
12:00:24, 47632.57
12:00:28, 47632.57
12:00:32, 47632.57
12:00:36, 47632.57
12:00:40, 47632.57
12:00:44, 47632.57
12:00:48, 47632.57
12:00:52, 47632.57
12:00:57, 47632.57
12:01:01, 47632.57
12:01:05, 47632.57
12:01:09, 47632.57
12:01:13, 47632.57
12:01:17, 47623.9
12:01:21, 47623.9
12:01:25, 47623.9
12:01:29, 47623.9
12:01:33, 47623.9
12:01:37, 47623.9
12:01:41, 47623.9
12:01:45, 47623.9
12:01:49, 47623.9
12:01:53, 47623.9
12:01:58, 47623.9
12:02:01, 47623.9
12:02:05, 47623.9
12:02:10, 47623.9
12:02:14, 47623.9
12:02:18, 47660.43
12:02:22, 47660.43
12:02:26, 47660.43
12:02:30, 47660.43
12:02:34, 47660.43
12:02:38, 47660.43
12:02:42, 47660.43
12:02:46, 47660.43
12:02:50, 47660.43
12:02:54, 47660.43
12:02:59, 47660.43
12:03:03, 47660.43
12:03:07, 47660.43
12:03:11, 47660.43
12:03:15, 47660.43
12:03:19, 47629.73
12:03:23, 47629.73
12:03:27, 47629.73
12:03:31, 47629.73
12:03:35, 47629.73
12:03:39, 47629.73
12:03:44, 47629.73
12:03:48, 47629.73
12:03:52, 47629.73
12:03:56, 47629.73
12:04:00, 47629.73
12:04:04, 47629.73
12:04:08, 47629.73
12:04:13, 47629.73
12:04:17, 47629.73
12:04:21, 47609.65
12:04:25, 47609.65
